{
  "project_id": 48211115,
  "traces": [
    {
      "timestamp": "2023-09-21T06:40:27.068451Z",
      "trace_id": "5301d339-c552-d9e3-6827-9cd032519b36",
      "service_name": "gitlab-crm",
      "operation": "OrganizationsController#destroy",
      "statusCode": "STATUS_CODE_UNSET",
      "duration_nano": 42628000,
      "spans": [
        {
          "timestamp": "2023-09-21T06:40:27.097963Z",
          "span_id": "7064343591DE5A0A",
          "trace_id": "5301d339-c552-d9e3-6827-9cd032519b36",
          "service_name": "gitlab-crm",
          "operation": "Organization.find_by_sql",
          "duration_nano": 2927000,
          "parent_span_id": "DAF025F127D669B6",
          "statusCode": "STATUS_CODE_UNSET"
        },
        {
          "timestamp": "2023-09-21T06:40:27.098022Z",
          "span_id": "37CEAD5BED924565",
          "trace_id": "5301d339-c552-d9e3-6827-9cd032519b36",
          "service_name": "gitlab-crm-fake-service-1",
          "operation": "EXECUTE gitlabcrm_development",
          "duration_nano": 1099000,
          "parent_span_id": "7064343591DE5A0A",
          "statusCode": "STATUS_CODE_UNSET"
        },
        {
          "timestamp": "2023-09-21T06:40:27.068451Z",
          "span_id": "DAF025F127D669B6",
          "trace_id": "5301d339-c552-d9e3-6827-9cd032519b36",
          "service_name": "gitlab-crm",
          "operation": "OrganizationsController#destroy",
          "duration_nano": 42628000,
          "parent_span_id": "",
          "statusCode": "STATUS_CODE_UNSET"
        },
        {
          "timestamp": "2023-09-21T06:40:27.101521Z",
          "span_id": "DCF7DCAC40CE76F9",
          "trace_id": "5301d339-c552-d9e3-6827-9cd032519b36",
          "service_name": "gitlab-crm-fake-service-2",
          "operation": "Organization#update",
          "duration_nano": 8575000,
          "parent_span_id": "DAF025F127D669B6",
          "statusCode": "STATUS_CODE_UNSET"
        },
        {
          "timestamp": "2023-09-21T06:40:27.101695Z",
          "span_id": "BA2B3BAEE955A092",
          "trace_id": "5301d339-c552-d9e3-6827-9cd032519b36",
          "service_name": "gitlab-crm",
          "operation": "Organization#save",
          "duration_nano": 7378000,
          "parent_span_id": "DCF7DCAC40CE76F9",
          "statusCode": "STATUS_CODE_UNSET"
        },
        {
          "timestamp": "2023-09-21T06:40:27.103084Z",
          "span_id": "AE08B87491910AB3",
          "trace_id": "5301d339-c552-d9e3-6827-9cd032519b36",
          "service_name": "gitlab-crm-fake-service-3",
          "operation": "Account.find_by_sql",
          "duration_nano": 4485000,
          "parent_span_id": "BA2B3BAEE955A092",
          "statusCode": "STATUS_CODE_UNSET"
        },
        {
          "timestamp": "2023-09-21T06:40:27.103233Z",
          "span_id": "BA7ABE36FC526A78",
          "trace_id": "5301d339-c552-d9e3-6827-9cd032519b36",
          "service_name": "gitlab-crm-fake-service-3",
          "operation": "BEGIN gitlabcrm_development",
          "duration_nano": 1683000,
          "parent_span_id": "AE08B87491910AB3",
          "statusCode": "STATUS_CODE_UNSET"
        },
        {
          "timestamp": "2023-09-21T06:40:27.106483Z",
          "span_id": "267C05C40D752FEB",
          "trace_id": "5301d339-c552-d9e3-6827-9cd032519b36",
          "service_name": "gitlab-crm",
          "operation": "EXECUTE gitlabcrm_development",
          "duration_nano": 643000,
          "parent_span_id": "AE08B87491910AB3",
          "statusCode": "STATUS_CODE_UNSET"
        },
        {
          "timestamp": "2023-09-21T06:40:27.107981Z",
          "span_id": "8F17E6DF5CC5FE5D",
          "trace_id": "5301d339-c552-d9e3-6827-9cd032519b36",
          "service_name": "gitlab-crm",
          "operation": "UPDATE gitlabcrm_development",
          "duration_nano": 752000,
          "parent_span_id": "BA2B3BAEE955A092",
          "statusCode": "STATUS_CODE_UNSET"
        },
        {
          "timestamp": "2023-09-21T06:40:27.109124Z",
          "span_id": "22DACF469683C369",
          "trace_id": "5301d339-c552-d9e3-6827-9cd032519b36",
          "service_name": "gitlab-crm",
          "operation": "COMMIT gitlabcrm_development",
          "duration_nano": 782000,
          "parent_span_id": "DCF7DCAC40CE76F9",
          "statusCode": "STATUS_CODE_UNSET"
        },
        {
          "timestamp": "2023-09-21T06:40:27.095691Z",
          "span_id": "4F303F47649FFE54",
          "trace_id": "5301d339-c552-d9e3-6827-9cd032519b36",
          "service_name": "gitlab-crm-fake-service-1",
          "operation": "gitlabcrm_development",
          "duration_nano": 644000,
          "parent_span_id": "DAF025F127D669B6",
          "statusCode": "STATUS_CODE_UNSET"
        },
        {
          "timestamp": "2023-09-21T06:40:27.096565Z",
          "span_id": "D0AF2785B748B412",
          "trace_id": "5301d339-c552-d9e3-6827-9cd032519b36",
          "service_name": "gitlab-crm",
          "operation": "EXECUTE gitlabcrm_development",
          "duration_nano": 553000,
          "parent_span_id": "DAF025F127D669B6",
          "statusCode": "STATUS_CODE_UNSET"
        }
      ],
      "totalSpans": 12
    }
  ],
  "total_traces": 1,
  "next_page_token": "foobar"
}
